{
    "disabled": false,
    "bindings": [
        {
            "name": "req",
            "type": "httpTrigger",
            "direction": "in",
            "authLevel": "anonymous",
            "methods": [ "GET", "POST", "PATCH", "PUT", "DELETE" ],
            "route": "api/{id:alpha?}"
        },
        {
            "type": "http",
            "direction": "out",
            "name": "res"
        }
    ]
}
